@RELATION kgrid

@ATTRIBUTE matchPerc NUMERIC
@ATTRIBUTE avgNumKeyMap NUMERIC
@ATTRIBUTE srRelate NUMERIC
@ATTRIBUTE srcAvgLen NUMERIC
@ATTRIBUTE srcDistinctValFrac NUMERIC
@ATTRIBUTE srcNumericValFrac NUMERIC
@ATTRIBUTE tgtAvgLen NUMERIC
@ATTRIBUTE tgtIsNum {0,1}
@ATTRIBUTE tgtDistinctValFrac NUMERIC
@ATTRIBUTE inLink NUMERIC
@ATTRIBUTE outLink NUMERIC
@ATTRIBUTE srcTableColIdx {0,1}
@ATTRIBUTE matchedTableColIdx {0,1}
@ATTRIBUTE vote {0,1}

@DATA